[0921/161855.070:ERROR:process_reader_win.cc(127)] NtOpenThread: {Access Denied} A process has requested access to an object, but has not been granted those access rights. (0xc0000022)
[0921/161855.070:ERROR:process_reader_win.cc(127)] NtOpenThread: {Access Denied} A process has requested access to an object, but has not been granted those access rights. (0xc0000022)
[0921/161855.414:ERROR:exception_snapshot_win.cc(100)] thread ID 21884 not found in process
[0921/161855.414:ERROR:exception_snapshot_win.cc(100)] thread ID 11728 not found in process
